^D:\USERS\USER-PC\DESKTOP\MAGSHIMIM\כיתה יא\TAKIPROJECTGIT\TAKIPROJECT\SERVER\SERVER\CARD.CPP|D:\USERS\USER-PC\DESKTOP\MAGSHIMIM\כיתה יא\TAKIPROJECTGIT\TAKIPROJECT\SERVER\SERVER\COMMHANDLER.CPP|D:\USERS\USER-PC\DESKTOP\MAGSHIMIM\כיתה יא\TAKIPROJECTGIT\TAKIPROJECT\SERVER\SERVER\DATABASEHANDLER.CPP|D:\USERS\USER-PC\DESKTOP\MAGSHIMIM\כיתה יא\TAKIPROJECTGIT\TAKIPROJECT\SERVER\SERVER\DECK.CPP|D:\USERS\USER-PC\DESKTOP\MAGSHIMIM\כיתה יא\TAKIPROJECTGIT\TAKIPROJECT\SERVER\SERVER\MAIN.CPP|D:\USERS\USER-PC\DESKTOP\MAGSHIMIM\כיתה יא\TAKIPROJECTGIT\TAKIPROJECT\SERVER\SERVER\PLAYINGUSER.CPP|D:\USERS\USER-PC\DESKTOP\MAGSHIMIM\כיתה יא\TAKIPROJECTGIT\TAKIPROJECT\SERVER\SERVER\ROOM.CPP|D:\USERS\USER-PC\DESKTOP\MAGSHIMIM\כיתה יא\TAKIPROJECTGIT\TAKIPROJECT\SERVER\SERVER\SERVER.CPP|D:\USERS\USER-PC\DESKTOP\MAGSHIMIM\כיתה יא\TAKIPROJECTGIT\TAKIPROJECT\SERVER\SERVER\USER.CPP
D:\USERS\USER-PC\DESKTOP\MAGSHIMIM\כיתה יא\TAKIPROJECTGIT\TAKIPROJECT\SERVER\PROJECT1\DEBUG\VC120.PDB
D:\USERS\USER-PC\DESKTOP\MAGSHIMIM\כיתה יא\TAKIPROJECTGIT\TAKIPROJECT\SERVER\PROJECT1\DEBUG\VC120.IDB
D:\USERS\USER-PC\DESKTOP\MAGSHIMIM\כיתה יא\TAKIPROJECTGIT\TAKIPROJECT\SERVER\PROJECT1\DEBUG\COMMHANDLER.OBJ
D:\USERS\USER-PC\DESKTOP\MAGSHIMIM\כיתה יא\TAKIPROJECTGIT\TAKIPROJECT\SERVER\PROJECT1\DEBUG\DATABASEHANDLER.OBJ
D:\USERS\USER-PC\DESKTOP\MAGSHIMIM\כיתה יא\TAKIPROJECTGIT\TAKIPROJECT\SERVER\PROJECT1\DEBUG\MAIN.OBJ
D:\USERS\USER-PC\DESKTOP\MAGSHIMIM\כיתה יא\TAKIPROJECTGIT\TAKIPROJECT\SERVER\PROJECT1\DEBUG\SERVER.OBJ
^D:\USERS\USER-PC\DESKTOP\MAGSHIMIM\כיתה יא\TAKIPROJECTGIT\TAKIPROJECT\SERVER\SERVER\CARD.CPP
D:\USERS\USER-PC\DESKTOP\MAGSHIMIM\כיתה יא\TAKIPROJECTGIT\TAKIPROJECT\SERVER\PROJECT1\DEBUG\VC120.PDB
^D:\USERS\USER-PC\DESKTOP\MAGSHIMIM\כיתה יא\TAKIPROJECTGIT\TAKIPROJECT\SERVER\SERVER\COMMHANDLER.CPP
D:\USERS\USER-PC\DESKTOP\MAGSHIMIM\כיתה יא\TAKIPROJECTGIT\TAKIPROJECT\SERVER\PROJECT1\DEBUG\VC120.PDB
^D:\USERS\USER-PC\DESKTOP\MAGSHIMIM\כיתה יא\TAKIPROJECTGIT\TAKIPROJECT\SERVER\SERVER\DATABASEHANDLER.CPP
D:\USERS\USER-PC\DESKTOP\MAGSHIMIM\כיתה יא\TAKIPROJECTGIT\TAKIPROJECT\SERVER\PROJECT1\DEBUG\VC120.PDB
^D:\USERS\USER-PC\DESKTOP\MAGSHIMIM\כיתה יא\TAKIPROJECTGIT\TAKIPROJECT\SERVER\SERVER\DECK.CPP
D:\USERS\USER-PC\DESKTOP\MAGSHIMIM\כיתה יא\TAKIPROJECTGIT\TAKIPROJECT\SERVER\PROJECT1\DEBUG\VC120.PDB
^D:\USERS\USER-PC\DESKTOP\MAGSHIMIM\כיתה יא\TAKIPROJECTGIT\TAKIPROJECT\SERVER\SERVER\MAIN.CPP
D:\USERS\USER-PC\DESKTOP\MAGSHIMIM\כיתה יא\TAKIPROJECTGIT\TAKIPROJECT\SERVER\PROJECT1\DEBUG\VC120.PDB
^D:\USERS\USER-PC\DESKTOP\MAGSHIMIM\כיתה יא\TAKIPROJECTGIT\TAKIPROJECT\SERVER\SERVER\PLAYINGUSER.CPP
D:\USERS\USER-PC\DESKTOP\MAGSHIMIM\כיתה יא\TAKIPROJECTGIT\TAKIPROJECT\SERVER\PROJECT1\DEBUG\VC120.PDB
^D:\USERS\USER-PC\DESKTOP\MAGSHIMIM\כיתה יא\TAKIPROJECTGIT\TAKIPROJECT\SERVER\SERVER\ROOM.CPP
D:\USERS\USER-PC\DESKTOP\MAGSHIMIM\כיתה יא\TAKIPROJECTGIT\TAKIPROJECT\SERVER\PROJECT1\DEBUG\VC120.PDB
^D:\USERS\USER-PC\DESKTOP\MAGSHIMIM\כיתה יא\TAKIPROJECTGIT\TAKIPROJECT\SERVER\SERVER\SERVER.CPP
D:\USERS\USER-PC\DESKTOP\MAGSHIMIM\כיתה יא\TAKIPROJECTGIT\TAKIPROJECT\SERVER\PROJECT1\DEBUG\VC120.PDB
^D:\USERS\USER-PC\DESKTOP\MAGSHIMIM\כיתה יא\TAKIPROJECTGIT\TAKIPROJECT\SERVER\SERVER\USER.CPP
D:\USERS\USER-PC\DESKTOP\MAGSHIMIM\כיתה יא\TAKIPROJECTGIT\TAKIPROJECT\SERVER\PROJECT1\DEBUG\VC120.PDB
^D:\USERS\USER-PC\DESKTOP\MAGSHIMIM\כיתה יא\TAKIPROJECTGIT\TAKIPROJECT\SERVER\SERVER\CARD.CPP|D:\USERS\USER-PC\DESKTOP\MAGSHIMIM\כיתה יא\TAKIPROJECTGIT\TAKIPROJECT\SERVER\SERVER\DECK.CPP|D:\USERS\USER-PC\DESKTOP\MAGSHIMIM\כיתה יא\TAKIPROJECTGIT\TAKIPROJECT\SERVER\SERVER\PLAYINGUSER.CPP|D:\USERS\USER-PC\DESKTOP\MAGSHIMIM\כיתה יא\TAKIPROJECTGIT\TAKIPROJECT\SERVER\SERVER\ROOM.CPP|D:\USERS\USER-PC\DESKTOP\MAGSHIMIM\כיתה יא\TAKIPROJECTGIT\TAKIPROJECT\SERVER\SERVER\SERVER.CPP|D:\USERS\USER-PC\DESKTOP\MAGSHIMIM\כיתה יא\TAKIPROJECTGIT\TAKIPROJECT\SERVER\SERVER\USER.CPP
D:\USERS\USER-PC\DESKTOP\MAGSHIMIM\כיתה יא\TAKIPROJECTGIT\TAKIPROJECT\SERVER\PROJECT1\DEBUG\VC120.PDB
D:\USERS\USER-PC\DESKTOP\MAGSHIMIM\כיתה יא\TAKIPROJECTGIT\TAKIPROJECT\SERVER\PROJECT1\DEBUG\VC120.IDB
D:\USERS\USER-PC\DESKTOP\MAGSHIMIM\כיתה יא\TAKIPROJECTGIT\TAKIPROJECT\SERVER\PROJECT1\DEBUG\SERVER.OBJ
^D:\USERS\USER-PC\DESKTOP\MAGSHIMIM\כיתה יא\TAKIPROJECTGIT\TAKIPROJECT\SERVER\SERVER\CARD.CPP|D:\USERS\USER-PC\DESKTOP\MAGSHIMIM\כיתה יא\TAKIPROJECTGIT\TAKIPROJECT\SERVER\SERVER\DECK.CPP|D:\USERS\USER-PC\DESKTOP\MAGSHIMIM\כיתה יא\TAKIPROJECTGIT\TAKIPROJECT\SERVER\SERVER\PLAYINGUSER.CPP|D:\USERS\USER-PC\DESKTOP\MAGSHIMIM\כיתה יא\TAKIPROJECTGIT\TAKIPROJECT\SERVER\SERVER\ROOM.CPP|D:\USERS\USER-PC\DESKTOP\MAGSHIMIM\כיתה יא\TAKIPROJECTGIT\TAKIPROJECT\SERVER\SERVER\USER.CPP
D:\USERS\USER-PC\DESKTOP\MAGSHIMIM\כיתה יא\TAKIPROJECTGIT\TAKIPROJECT\SERVER\PROJECT1\DEBUG\VC120.PDB
D:\USERS\USER-PC\DESKTOP\MAGSHIMIM\כיתה יא\TAKIPROJECTGIT\TAKIPROJECT\SERVER\PROJECT1\DEBUG\VC120.IDB
